{
  "createdBy": "Héctor Gabriel Alegre",
  "title": "Mapa Acción Estatal",
  "view": "layout_vuetify",
  "zones": [
    {
      "top_navbar": [
        {
          "module": "dashboard",
          "controller": "parser_elements",
          "function": "navbar_vuetify_v1"
        }
      ]
    },
    {
      "left_navbar": [
        {
          "module": "panel",
          "controller": "panel",
          "function": "left_navbar"
        }
      ]
    },
    {
      "content": [
        {
          "module": "panel",
          "controller": "panel",
          "function": "content"
        }
      ]
    }
  ],
  "css": [{ "{base_url}panel/assets/css/panel.css": "css" }],

  "js": [{ "{base_url}panel/assets/js/panel.js": "js" }]
}
